{
  "images" : [
    {
      "idiom" : "universal",
      "filename" : "100_Logo_White_Artwork.png",
      "scale" : "1x"
    },
    {
      "idiom" : "universal",
      "filename" : "200_Logo_White_Artwork copy.png",
      "scale" : "2x"
    },
    {
      "idiom" : "universal",
      "filename" : "300_Logo_White_Artwork copy 2.png",
      "scale" : "3x"
    }
  ],
  "info" : {
    "version" : 1,
    "author" : "xcode"
  }
}